%YAML 1.1
%TAG !u! tag:unity3d.com,2011:
--- !u!74 &7400000
AnimationClip:
  m_ObjectHideFlags: 0
  m_PrefabParentObject: {fileID: 0}
  m_PrefabInternal: {fileID: 0}
  m_Name: p_a_left
  serializedVersion: 6
  m_Legacy: 0
  m_Compressed: 0
  m_UseHighQualityCurve: 1
  m_RotationCurves: []
  m_CompressedRotationCurves: []
  m_EulerCurves:
  - curve:
      serializedVersion: 2
      m_Curve:
      - serializedVersion: 2
        time: 0
        value: {x: 0, y: 0, z: 29.73}
        inSlope: {x: Infinity, y: Infinity, z: Infinity}
        outSlope: {x: -0, y: -0, z: 854.04}
        tangentMode: 0
      - serializedVersion: 2
        time: 0.083333336
        value: {x: 0, y: 0, z: 100.9}
        inSlope: {x: 0, y: 0, z: 854.04}
        outSlope: {x: -0, y: -0, z: 246}
        tangentMode: 0
      - serializedVersion: 2
        time: 0.16666667
        value: {x: 0, y: 0, z: 121.4}
        inSlope: {x: 0, y: 0, z: 246}
        outSlope: {x: Infinity, y: Infinity, z: Infinity}
        tangentMode: 0
      m_PreInfinity: 2
      m_PostInfinity: 2
      m_RotationOrder: 4
    path: ramsword
  m_PositionCurves:
  - curve:
      serializedVersion: 2
      m_Curve:
      - serializedVersion: 2
        time: 0
        value: {x: -0.43, y: 0.09, z: 1}
        inSlope: {x: Infinity, y: Infinity, z: Infinity}
        outSlope: {x: 3.6000001, y: -3.36, z: -0}
        tangentMode: 0
      - serializedVersion: 2
        time: 0.083333336
        value: {x: -0.13, y: -0.19, z: 1}
        inSlope: {x: 3.6000001, y: -3.36, z: 0}
        outSlope: {x: 1.4399999, y: -1.1999999, z: -0}
        tangentMode: 0
      - serializedVersion: 2
        time: 0.16666667
        value: {x: -0.01, y: -0.29, z: 1}
        inSlope: {x: 1.4399999, y: -1.1999999, z: 0}
        outSlope: {x: Infinity, y: Infinity, z: Infinity}
        tangentMode: 0
      m_PreInfinity: 2
      m_PostInfinity: 2
      m_RotationOrder: 4
    path: ramsword
  m_ScaleCurves: []
  m_FloatCurves: []
  m_PPtrCurves:
  - curve:
    - time: 0
      value: {fileID: 21300020, guid: df905792ec4a17a4fadaeff4ffc8a577, type: 3}
    - time: 0.083333336
      value: {fileID: 21300022, guid: df905792ec4a17a4fadaeff4ffc8a577, type: 3}
    - time: 0.16666667
      value: {fileID: 21300022, guid: df905792ec4a17a4fadaeff4ffc8a577, type: 3}
    attribute: m_Sprite
    path: 
    classID: 212
    script: {fileID: 0}
  m_SampleRate: 12
  m_WrapMode: 0
  m_Bounds:
    m_Center: {x: 0, y: 0, z: 0}
    m_Extent: {x: 0, y: 0, z: 0}
  m_ClipBindingConstant:
    genericBindings:
    - serializedVersion: 2
      path: 1312498243
      attribute: 1
      script: {fileID: 0}
      typeID: 4
      customType: 0
      isPPtrCurve: 0
    - serializedVersion: 2
      path: 1312498243
      attribute: 4
      script: {fileID: 0}
      typeID: 4
      customType: 14
      isPPtrCurve: 0
    - serializedVersion: 2
      path: 0
      attribute: 0
      script: {fileID: 0}
      typeID: 212
      customType: 23
      isPPtrCurve: 1
    pptrCurveMapping:
    - {fileID: 21300020, guid: df905792ec4a17a4fadaeff4ffc8a577, type: 3}
    - {fileID: 21300022, guid: df905792ec4a17a4fadaeff4ffc8a577, type: 3}
    - {fileID: 21300022, guid: df905792ec4a17a4fadaeff4ffc8a577, type: 3}
  m_AnimationClipSettings:
    serializedVersion: 2
    m_AdditiveReferencePoseClip: {fileID: 0}
    m_AdditiveReferencePoseTime: 0
    m_StartTime: 0
    m_StopTime: 0.25
    m_OrientationOffsetY: 0
    m_Level: 0
    m_CycleOffset: 0
    m_HasAdditiveReferencePose: 0
    m_LoopTime: 1
    m_LoopBlend: 0
    m_LoopBlendOrientation: 0
    m_LoopBlendPositionY: 0
    m_LoopBlendPositionXZ: 0
    m_KeepOriginalOrientation: 0
    m_KeepOriginalPositionY: 1
    m_KeepOriginalPositionXZ: 0
    m_HeightFromFeet: 0
    m_Mirror: 0
  m_EditorCurves:
  - curve:
      serializedVersion: 2
      m_Curve:
      - serializedVersion: 2
        time: 0
        value: 0
        inSlope: Infinity
        outSlope: -0
        tangentMode: 69
      - serializedVersion: 2
        time: 0.083333336
        value: 0
        inSlope: 0
        outSlope: -0
        tangentMode: 69
      - serializedVersion: 2
        time: 0.16666667
        value: 0
        inSlope: 0
        outSlope: Infinity
        tangentMode: 69
      m_PreInfinity: 2
      m_PostInfinity: 2
      m_RotationOrder: 4
    attribute: localEulerAnglesRaw.x
    path: ramsword
    classID: 4
    script: {fileID: 0}
  - curve:
      serializedVersion: 2
      m_Curve:
      - serializedVersion: 2
        time: 0
        value: 0
        inSlope: Infinity
        outSlope: -0
        tangentMode: 69
      - serializedVersion: 2
        time: 0.083333336
        value: 0
        inSlope: 0
        outSlope: -0
        tangentMode: 69
      - serializedVersion: 2
        time: 0.16666667
        value: 0
        inSlope: 0
        outSlope: Infinity
        tangentMode: 69
      m_PreInfinity: 2
      m_PostInfinity: 2
      m_RotationOrder: 4
    attribute: localEulerAnglesRaw.y
    path: ramsword
    classID: 4
    script: {fileID: 0}
  - curve:
      serializedVersion: 2
      m_Curve:
      - serializedVersion: 2
        time: 0
        value: 29.73
        inSlope: Infinity
        outSlope: 854.04
        tangentMode: 69
      - serializedVersion: 2
        time: 0.083333336
        value: 100.9
        inSlope: 854.04
        outSlope: 246
        tangentMode: 69
      - serializedVersion: 2
        time: 0.16666667
        value: 121.4
        inSlope: 246
        outSlope: Infinity
        tangentMode: 69
      m_PreInfinity: 2
      m_PostInfinity: 2
      m_RotationOrder: 4
    attribute: localEulerAnglesRaw.z
    path: ramsword
    classID: 4
    script: {fileID: 0}
  - curve:
      serializedVersion: 2
      m_Curve:
      - serializedVersion: 2
        time: 0
        value: -0.43
        inSlope: Infinity
        outSlope: 3.6000001
        tangentMode: 69
      - serializedVersion: 2
        time: 0.083333336
        value: -0.13
        inSlope: 3.6000001
        outSlope: 1.4399999
        tangentMode: 69
      - serializedVersion: 2
        time: 0.16666667
        value: -0.01
        inSlope: 1.4399999
        outSlope: Infinity
        tangentMode: 69
      m_PreInfinity: 2
      m_PostInfinity: 2
      m_RotationOrder: 4
    attribute: m_LocalPosition.x
    path: ramsword
    classID: 4
    script: {fileID: 0}
  - curve:
      serializedVersion: 2
      m_Curve:
      - serializedVersion: 2
        time: 0
        value: 0.09
        inSlope: Infinity
        outSlope: -3.36
        tangentMode: 69
      - serializedVersion: 2
        time: 0.083333336
        value: -0.19
        inSlope: -3.36
        outSlope: -1.1999999
        tangentMode: 69
      - serializedVersion: 2
        time: 0.16666667
        value: -0.29
        inSlope: -1.1999999
        outSlope: Infinity
        tangentMode: 69
      m_PreInfinity: 2
      m_PostInfinity: 2
      m_RotationOrder: 4
    attribute: m_LocalPosition.y
    path: ramsword
    classID: 4
    script: {fileID: 0}
  - curve:
      serializedVersion: 2
      m_Curve:
      - serializedVersion: 2
        time: 0
        value: 1
        inSlope: Infinity
        outSlope: -0
        tangentMode: 69
      - serializedVersion: 2
        time: 0.083333336
        value: 1
        inSlope: 0
        outSlope: -0
        tangentMode: 69
      - serializedVersion: 2
        time: 0.16666667
        value: 1
        inSlope: 0
        outSlope: Infinity
        tangentMode: 69
      m_PreInfinity: 2
      m_PostInfinity: 2
      m_RotationOrder: 4
    attribute: m_LocalPosition.z
    path: ramsword
    classID: 4
    script: {fileID: 0}
  m_EulerEditorCurves:
  - curve:
      serializedVersion: 2
      m_Curve: []
      m_PreInfinity: 2
      m_PostInfinity: 2
      m_RotationOrder: 4
    attribute: m_LocalEulerAngles.x
    path: ramsword
    classID: 4
    script: {fileID: 0}
  - curve:
      serializedVersion: 2
      m_Curve: []
      m_PreInfinity: 2
      m_PostInfinity: 2
      m_RotationOrder: 4
    attribute: m_LocalEulerAngles.y
    path: ramsword
    classID: 4
    script: {fileID: 0}
  - curve:
      serializedVersion: 2
      m_Curve: []
      m_PreInfinity: 2
      m_PostInfinity: 2
      m_RotationOrder: 4
    attribute: m_LocalEulerAngles.z
    path: ramsword
    classID: 4
    script: {fileID: 0}
  m_HasGenericRootTransform: 0
  m_HasMotionFloatCurves: 0
  m_GenerateMotionCurves: 0
  m_Events: []
